^C:\USERS\ADMIN\SOURCE\REPOS\1512470_EXPLORER\1512470_EXPLORER\STDAFX.CPP
/c /ZI /nologo /W3 /WX- /diagnostics:classic /sdl /Od /D _DEBUG /D _WINDOWS /D _UNICODE /D UNICODE /Gm /EHsc /RTC1 /MDd /GS /fp:precise /Zc:wchar_t /Zc:forScope /Zc:inline /Yc"stdafx.h" /Fp"X64\DEBUG\1512470_EXPLORER.PCH" /Fo"X64\DEBUG\\" /Fd"X64\DEBUG\VC141.PDB" /Gd /TP C:\USERS\ADMIN\SOURCE\REPOS\1512470_EXPLORER\1512470_EXPLORER\STDAFX.CPP
^C:\USERS\ADMIN\SOURCE\REPOS\1512470_EXPLORER\1512470_EXPLORER\1512470EXPLORER.CPP
/c /ZI /nologo /W3 /WX- /diagnostics:classic /sdl /Od /D _DEBUG /D _WINDOWS /D _UNICODE /D UNICODE /Gm /EHsc /RTC1 /MDd /GS /fp:precise /Zc:wchar_t /Zc:forScope /Zc:inline /Yu"stdafx.h" /Fp"X64\DEBUG\1512470_EXPLORER.PCH" /Fo"X64\DEBUG\\" /Fd"X64\DEBUG\VC141.PDB" /Gd /TP C:\USERS\ADMIN\SOURCE\REPOS\1512470_EXPLORER\1512470_EXPLORER\1512470EXPLORER.CPP
^C:\USERS\ADMIN\SOURCE\REPOS\1512470_EXPLORER\1512470_EXPLORER\DUNGLUONG.CPP
/c /ZI /nologo /W3 /WX- /diagnostics:classic /sdl /Od /D _DEBUG /D _WINDOWS /D _UNICODE /D UNICODE /Gm /EHsc /RTC1 /MDd /GS /fp:precise /Zc:wchar_t /Zc:forScope /Zc:inline /Yu"stdafx.h" /Fp"X64\DEBUG\1512470_EXPLORER.PCH" /Fo"X64\DEBUG\\" /Fd"X64\DEBUG\VC141.PDB" /Gd /TP C:\USERS\ADMIN\SOURCE\REPOS\1512470_EXPLORER\1512470_EXPLORER\DUNGLUONG.CPP
^C:\USERS\ADMIN\SOURCE\REPOS\1512470_EXPLORER\1512470_EXPLORER\DUONGDAN.CPP
/c /ZI /nologo /W3 /WX- /diagnostics:classic /sdl /Od /D _DEBUG /D _WINDOWS /D _UNICODE /D UNICODE /Gm /EHsc /RTC1 /MDd /GS /fp:precise /Zc:wchar_t /Zc:forScope /Zc:inline /Yu"stdafx.h" /Fp"X64\DEBUG\1512470_EXPLORER.PCH" /Fo"X64\DEBUG\\" /Fd"X64\DEBUG\VC141.PDB" /Gd /TP C:\USERS\ADMIN\SOURCE\REPOS\1512470_EXPLORER\1512470_EXPLORER\DUONGDAN.CPP
