^C:\USERS\ADMIN\SOURCE\REPOS\1512470_HOOK\HOOK\STDAFX.CPP
C:\USERS\ADMIN\SOURCE\REPOS\1512470_HOOK\HOOK\DEBUG\HOOK.PCH
C:\USERS\ADMIN\SOURCE\REPOS\1512470_HOOK\HOOK\DEBUG\VC141.PDB
C:\USERS\ADMIN\SOURCE\REPOS\1512470_HOOK\HOOK\DEBUG\VC141.IDB
C:\USERS\ADMIN\SOURCE\REPOS\1512470_HOOK\HOOK\DEBUG\STDAFX.OBJ
^C:\USERS\ADMIN\SOURCE\REPOS\1512470_HOOK\HOOK\HOOK.CPP
C:\USERS\ADMIN\SOURCE\REPOS\1512470_HOOK\HOOK\DEBUG\VC141.PDB
C:\USERS\ADMIN\SOURCE\REPOS\1512470_HOOK\HOOK\DEBUG\VC141.IDB
C:\USERS\ADMIN\SOURCE\REPOS\1512470_HOOK\HOOK\DEBUG\HOOK.OBJ
