^C:\USERS\ADMIN\SOURCE\REPOS\1512470_HOOK\HOOK\DEBUG\HOOK.OBJ|C:\USERS\ADMIN\SOURCE\REPOS\1512470_HOOK\HOOK\DEBUG\HOOK.RES|C:\USERS\ADMIN\SOURCE\REPOS\1512470_HOOK\HOOK\DEBUG\STDAFX.OBJ
C:\USERS\ADMIN\SOURCE\REPOS\1512470_HOOK\DEBUG\HOOK.EXE
C:\USERS\ADMIN\SOURCE\REPOS\1512470_HOOK\DEBUG\HOOK.ILK
C:\USERS\ADMIN\SOURCE\REPOS\1512470_HOOK\DEBUG\HOOK.PDB
