^C:\USERS\ADMIN\SOURCE\REPOS\1512470_EXPLORER\1512470_EXPLORER\STDAFX.CPP
/c /Zi /nologo /W3 /WX- /diagnostics:classic /sdl /O2 /Oi /GL /D NDEBUG /D _WINDOWS /D _UNICODE /D UNICODE /Gm- /EHsc /MD /GS /Gy /fp:precise /Zc:wchar_t /Zc:forScope /Zc:inline /Yc"stdafx.h" /Fp"X64\RELEASE\1512470_EXPLORER.PCH" /Fo"X64\RELEASE\\" /Fd"X64\RELEASE\VC141.PDB" /Gd /TP C:\USERS\ADMIN\SOURCE\REPOS\1512470_EXPLORER\1512470_EXPLORER\STDAFX.CPP
^C:\USERS\ADMIN\SOURCE\REPOS\1512470_EXPLORER\1512470_EXPLORER\1512470EXPLORER.CPP
/c /Zi /nologo /W3 /WX- /diagnostics:classic /sdl /O2 /Oi /GL /D NDEBUG /D _WINDOWS /D _UNICODE /D UNICODE /Gm- /EHsc /MD /GS /Gy /fp:precise /Zc:wchar_t /Zc:forScope /Zc:inline /Yu"stdafx.h" /Fp"X64\RELEASE\1512470_EXPLORER.PCH" /Fo"X64\RELEASE\\" /Fd"X64\RELEASE\VC141.PDB" /Gd /TP C:\USERS\ADMIN\SOURCE\REPOS\1512470_EXPLORER\1512470_EXPLORER\1512470EXPLORER.CPP
^C:\USERS\ADMIN\SOURCE\REPOS\1512470_EXPLORER\1512470_EXPLORER\DUNGLUONG.CPP
/c /Zi /nologo /W3 /WX- /diagnostics:classic /sdl /O2 /Oi /GL /D NDEBUG /D _WINDOWS /D _UNICODE /D UNICODE /Gm- /EHsc /MD /GS /Gy /fp:precise /Zc:wchar_t /Zc:forScope /Zc:inline /Yu"stdafx.h" /Fp"X64\RELEASE\1512470_EXPLORER.PCH" /Fo"X64\RELEASE\\" /Fd"X64\RELEASE\VC141.PDB" /Gd /TP C:\USERS\ADMIN\SOURCE\REPOS\1512470_EXPLORER\1512470_EXPLORER\DUNGLUONG.CPP
^C:\USERS\ADMIN\SOURCE\REPOS\1512470_EXPLORER\1512470_EXPLORER\DUONGDAN.CPP
/c /Zi /nologo /W3 /WX- /diagnostics:classic /sdl /O2 /Oi /GL /D NDEBUG /D _WINDOWS /D _UNICODE /D UNICODE /Gm- /EHsc /MD /GS /Gy /fp:precise /Zc:wchar_t /Zc:forScope /Zc:inline /Yu"stdafx.h" /Fp"X64\RELEASE\1512470_EXPLORER.PCH" /Fo"X64\RELEASE\\" /Fd"X64\RELEASE\VC141.PDB" /Gd /TP C:\USERS\ADMIN\SOURCE\REPOS\1512470_EXPLORER\1512470_EXPLORER\DUONGDAN.CPP
